[gd_scene load_steps=4 format=2]

[ext_resource path="res://asset/material/tile/dark.tres" type="Material" id=1]
[ext_resource path="res://asset/tileset/city/glb/obstructed.glb" type="PackedScene" id=2]

[sub_resource type="BoxShape" id=1]
extents = Vector3( 3, 1, 3 )

[node name="obstructed" instance=ExtResource( 2 )]

[node name="obstructed" parent="." index="0"]
material/0 = ExtResource( 1 )

[node name="blocked" type="Area" parent="obstructed" index="0" groups=[
"area_blocked",
]]

[node name="CollisionShape" type="CollisionShape" parent="obstructed/blocked" index="0"]
shape = SubResource( 1 )
